[gd_scene load_steps=3 format=2]

[ext_resource path="res://scripts/seagull.gd" type="Script" id=1]
[ext_resource path="res://resources/3D/seagull.obj" type="ArrayMesh" id=2]

[node name="seagull" type="Spatial"]
script = ExtResource( 1 )

[node name="seagull_mesh" type="MeshInstance" parent="."]
transform = Transform( -2.42549e-08, -1.33093e-09, -0.5, -0.242545, 0.437232, 1.0602e-08, 0.437232, 0.242545, -2.18557e-08, 0, 0, -10 )
mesh = ExtResource( 2 )
material/0 = null
material/1 = null
material/2 = null
